{
  "type": "service_account",
  "project_id": "develop-mfa-apap",
  "private_key_id": "3c5fb393b8c0f10268fa5e962e9fdade700006e3",
  "private_key": "-----BEGIN PRIVATE KEY-----\nMIIEvQIBADANBgkqhkiG9w0BAQEFAASCBKcwggSjAgEAAoIBAQC01JlfPF2XiLYi\nWy87td2Evd96jILWW9mrIwvpNxJXiWsg2FxBFjwOn2Ubo6FTYC2vn3asedsKhAz3\n89GaRPmuwrLRZyComSYYS8C/zwgzmxo2YPX0TGGqNeXhpkSKRqh820hvt+b93x4q\nEwdjbMifriKCbOWUrQGWKVbV2GNWxt5eWQzTVxwyC9Hq4qC7Hqcdk3dw79JnLs1I\nCz3ZGoCSVNqEeyg/Yyq9QHvBdb50UrilcnaNK3m/Zr/AjHq+3x2swGDfS01MZMbH\nWjUH/mvs+t1ioTrl8CceUb0XabzqYty/oSlQWtMTTWlHKLPCLD0ybi4a3xhIlhjc\nW50duVb/AgMBAAECggEAAScFtIoBnVtIBd9c5V2FruM4Obi222o0cJca6/6SMFqg\n2HxoghsD1k1aa0WssTJWDYjPoc5uVe/SLAEIH0U8mMoxh4zHtCtdsclHI4ch6epI\nItFACrGIlyQcIJxa/XfxJPKPe0l0axPGm8Vem69FdrcOYz8RwNPQGcaOVh3jQYSk\n3MFFZkR71C7g5SIjqd6MsTLvgUQWQKJExFlMs7Dly+J7s4uhiJEA31WTm9hqqRgl\nAlb52+Gg0/PXm4dDHjV8fhub3Fr0j1JPWuj2kQrfbCo6kRyJpzN6va+NEedxVExp\ncu7usRLNSFoMw42NYLJoF83ptkTyE3up+lSevYHtQQKBgQDXrVkiCaQSDjk1NslA\n88LgA39g/TbNI10rZV/J8FJ/FOJhXS3PpOtKZ1knsKTJIFJm9j7OtsBM1TDqRKn+\nQYXMXPewhXrmDD/pmexxNqYgHma+Q15L1XoBl9+J1DwjdSfCtdSsvmo9YRMHYZ+w\n8TvGOXBVEJD2qM2vSZlxp/iLoQKBgQDWo273iJif5hikdcN799qDoSaoNKMLxQgk\nQ+FcAsUNEJVBXAO/C7xBYUYpuCFZvVcWV4/hvp/ceDQPfCs7o5fQpBoF+oOiiPVA\n8zWyPmGdGV2H7cEjHnpEruy7QgvzGq0OlvKDg1XojT+foyUlZWZ67fSKrY3eWQv1\n7/c/MyXenwKBgFZpu/apSjV5wW4Sv1vozsGWZSjlC1nxu1ixy0lLoqIMKg+8l6hE\neYlcExqV6dAzxRA/xTZpfm7KVEjorfuTIRqafRsav/0AF3NvGo7ZyIHB7IR61YMo\nyzNsOEIu6NGEFSQsWkPEHyjshgVFFgh8/ugTB3DtrEdHpvF+WZ5yIGFBAoGBAJSx\nCdmvplP3WhDsiC0kShuwExCpzl4D9BzzbXaJcKsZVty9etbpsVP1qF6UcX4yndcb\nd9CidyqLlz02/thE/5IJbQHBR1nc2VJSalt9va/Qd6wH+Cl1HqzgJZ2gJpkWXNbj\nmUOkQ2pkF7RmmAAtG+6DVEqR6tsjAxcwUy9UJqLvAoGAXLOjx2+bqvi/OAq0+sAs\nLskFJq8bTRfvjBFLHc3eROzsl//Mmr8qvlwDokEoo6rxTRAWIBCxqow8rMW7cIE/\ngl+/yYw1RPcnwsafPCq694EuucvXsC4gOMYiiw15ScKn6m8mgBOTVhMNruuHR36s\nTnHIXTW907HDbPRiNgGax4E=\n-----END PRIVATE KEY-----\n",
  "client_email": "firebase-adminsdk-hu8iq@develop-mfa-apap.iam.gserviceaccount.com",
  "client_id": "115664297616832218114",
  "auth_uri": "https://accounts.google.com/o/oauth2/auth",
  "token_uri": "https://oauth2.googleapis.com/token",
  "auth_provider_x509_cert_url": "https://www.googleapis.com/oauth2/v1/certs",
  "client_x509_cert_url": "https://www.googleapis.com/robot/v1/metadata/x509/firebase-adminsdk-hu8iq%40develop-mfa-apap.iam.gserviceaccount.com"
}
